/* XPM */
static char * title_4_active_xpm[] = {
"15 22 2 1",
" 	c None",
".	c #E2E2E2",
"...............",
"...............",
"...............",
"...............",
"...............",
"...............",
"...............",
"...............",
"...............",
"...............",
"...............",
"...............",
"...............",
"...............",
"...............",
"...............",
"...............",
"...............",
"...............",
"...............",
"...............",
"..............."};
